<svg xmlns="http://www.w3.org/2000/svg" xmlns:xlink="http://www.w3.org/1999/xlink" width="68.809" height="40" viewBox="0 0 68.809 40">
  <defs>
    <clipPath id="clip-path">
      <path id="Path_37" data-name="Path 37" d="M616.031-933.12h0a60.944,60.944,0,0,0-12.383,1.307c-17.395,3.628-30.22,13.843-30.224,23.555a10.772,10.772,0,0,0,.227,2.213c1.259,6.035,7.562,10.318,16.317,12.06,1.851-7.139,6.107-23.479,6.107-23.479a20.556,20.556,0,0,1,2.127-5.886,6.766,6.766,0,0,1,5.218-3.539,7.379,7.379,0,0,1,4.367.816,2.282,2.282,0,0,1,1.132,2.177,2.277,2.277,0,0,1-2.342,2.385,1.737,1.737,0,0,1-1.886-1.744c-.009-.943.551-1.089.544-1.788,0-.357-.329-.916-1.224-.776a3.62,3.62,0,0,0-2.624,2.579,13.87,13.87,0,0,0-.529,1.644l-1.1,4.272H607c-.947,3.432-2.552,9.53-3,11.2h-3.661l2.512-9.363h-3.588l-5.733,22.055a50.671,50.671,0,0,0,5.795.313,60.146,60.146,0,0,0,12.118-1.3c17.435-3.637,30.773-13.948,30.785-23.689a10.418,10.418,0,0,0-.219-2.148c-1.666-7.984-12.5-12.866-25.978-12.866h0m-32.188,10.205h4.282c6.569,0,7.031,3.352,6.474,5.739-.688,2.954-2.458,5.061-10,5.073-.744,2.748-1.387,5.125-1.617,5.977H579.3c.675-2.492,4.544-16.789,4.544-16.789m33.045,12.833a7.774,7.774,0,0,1,7.549-7.51c1.939,0,3.615.9,3.615,2.436a4.346,4.346,0,0,1-3.183,3.849,12.833,12.833,0,0,1-4.419.635,5.269,5.269,0,0,0-.029.82,2.084,2.084,0,0,0,2.2,2,5.887,5.887,0,0,0,3.526-1.766l.638,1.706a6.744,6.744,0,0,1-1.736,1.332,7.484,7.484,0,0,1-3.486.821c-2.787,0-4.674-1.743-4.674-4.327m20.424-7.436c2.034,0,2.339,1.21,2.339,2.148a1.743,1.743,0,0,1-1.668,1.857,1.421,1.421,0,0,1-1.093-.39,1.393,1.393,0,0,1-.4-.892c-.044-.311-.146-.612-.5-.67a1.62,1.62,0,0,0-1.374.514,6.746,6.746,0,0,0-1.463,2.156,10.52,10.52,0,0,0-.548,1.445l-1.422,5.226H627.5l3.023-11.2H634.1l-.641,2.245c.84-1.018,2.412-2.438,3.858-2.438m-28.644.194h9.165c-1.056,3.483-6.019,6.311-7.389,8.947h5.776l-.605,2.253h-9.379c0-3.539,5.922-7.626,7.049-9.363h-5.112l.5-1.836Zm-21.595-3.919c-.528,1.951-1.274,4.709-1.99,7.356,2.922-.007,4.758-.513,5.659-3.405.736-2.368.448-3.95-3.026-3.95Zm35.532,6.045a5.335,5.335,0,0,0-1.894,3.044,5.4,5.4,0,0,0,3.473-.986,2.528,2.528,0,0,0,1.127-1.875c0-.318-.2-.816-1.091-.816a2.968,2.968,0,0,0-1.616.633" transform="translate(-573.421 933.12)" fill="#0070BF"/>
    </clipPath>
    <clipPath id="clip-path-2">
      <path id="Path_36" data-name="Path 36" d="M573.408-933.12h68.813v40H573.408Z" transform="translate(-573.408 933.12)" fill="#0070BF"/>
    </clipPath>
  </defs>
  <g id="Pfizer_1_" data-name="Pfizer (1)" transform="translate(200.009 -251.38)">
    <g id="Group_3" data-name="Group 3" transform="translate(-200.009 251.38)">
      <g id="Group_2" data-name="Group 2" clip-path="url(#clip-path)">
        <g id="Group_1" data-name="Group 1" transform="translate(-0.005 0)" clip-path="url(#clip-path-2)">
          <path id="Path_35" data-name="Path 35" d="M616.031-933.12h0a60.944,60.944,0,0,0-12.383,1.307c-17.395,3.628-30.22,13.843-30.224,23.555a10.772,10.772,0,0,0,.227,2.213c1.259,6.035,7.562,10.318,16.317,12.06,1.851-7.139,6.107-23.479,6.107-23.479a20.556,20.556,0,0,1,2.127-5.886,6.766,6.766,0,0,1,5.218-3.539,7.379,7.379,0,0,1,4.367.816,2.282,2.282,0,0,1,1.132,2.177,2.277,2.277,0,0,1-2.342,2.385,1.737,1.737,0,0,1-1.886-1.744c-.009-.943.551-1.089.544-1.788,0-.357-.329-.916-1.224-.776a3.62,3.62,0,0,0-2.624,2.579,13.87,13.87,0,0,0-.529,1.644l-1.1,4.272H607c-.947,3.432-2.552,9.53-3,11.2h-3.661l2.512-9.363h-3.588l-5.733,22.055a50.671,50.671,0,0,0,5.795.313,60.146,60.146,0,0,0,12.118-1.3c17.435-3.637,30.773-13.948,30.785-23.689a10.418,10.418,0,0,0-.219-2.148c-1.666-7.984-12.5-12.866-25.978-12.866h0m-32.188,10.205h4.282c6.569,0,7.031,3.352,6.474,5.739-.688,2.954-2.458,5.061-10,5.073-.744,2.748-1.387,5.125-1.617,5.977H579.3c.675-2.492,4.544-16.789,4.544-16.789m33.045,12.833a7.774,7.774,0,0,1,7.549-7.51c1.939,0,3.615.9,3.615,2.436a4.346,4.346,0,0,1-3.183,3.849,12.833,12.833,0,0,1-4.419.635,5.269,5.269,0,0,0-.029.82,2.084,2.084,0,0,0,2.2,2,5.887,5.887,0,0,0,3.526-1.766l.638,1.706a6.744,6.744,0,0,1-1.736,1.332,7.484,7.484,0,0,1-3.486.821c-2.787,0-4.674-1.743-4.674-4.327m20.424-7.436c2.034,0,2.339,1.21,2.339,2.148a1.743,1.743,0,0,1-1.668,1.857,1.421,1.421,0,0,1-1.093-.39,1.393,1.393,0,0,1-.4-.892c-.044-.311-.146-.612-.5-.67a1.62,1.62,0,0,0-1.374.514,6.746,6.746,0,0,0-1.463,2.156,10.52,10.52,0,0,0-.548,1.445l-1.422,5.226H627.5l3.023-11.2H634.1l-.641,2.245c.84-1.018,2.412-2.438,3.858-2.438m-28.644.194h9.165c-1.056,3.483-6.019,6.311-7.389,8.947h5.776l-.605,2.253h-9.379c0-3.539,5.922-7.626,7.049-9.363h-5.112l.5-1.836Zm-21.595-3.919c-.528,1.951-1.274,4.709-1.99,7.356,2.922-.007,4.758-.513,5.659-3.405.736-2.368.448-3.95-3.026-3.95Zm35.532,6.045a5.335,5.335,0,0,0-1.894,3.044,5.4,5.4,0,0,0,3.473-.986,2.528,2.528,0,0,0,1.127-1.875c0-.318-.2-.816-1.091-.816a2.968,2.968,0,0,0-1.616.633" transform="translate(-573.417 933.12)" fill="#0070BF"/>
        </g>
      </g>
    </g>
  </g>
</svg>
